{
    "page": 1,
    "total_results": 10000,
    "total_pages": 500,
    "results": [
        {
            "original_name": "Insatiable",
            "genre_ids": [
                35,
                18
            ],
            "name": "Insatiable",
            "popularity": 118.473,
            "origin_country": [
                "US"
            ],
            "vote_count": 84,
            "first_air_date": "2018-08-10",
            "backdrop_path": "/q54k3tg5VjezBagGRtFamVqdY7L.jpg",
            "original_language": "en",
            "id": 80743,
            "vote_average": 7.4,
            "overview": "A bullied teenager turns to beauty pageants as a way to exact her revenge, with the help of a disgraced coach who soon realizes he's in over his head.",
            "poster_path": "/lHZ4xqGQlmyiFTOVtwnNpTcZgkd.jpg"
        },
        {
            "original_name": "The Flemish Bandits",
            "genre_ids": [
                18,
                9648,
                10759
            ],
            "name": "Thieves of the Wood",
            "popularity": 344.528,
            "origin_country": [
                "BE"
            ],
            "vote_count": 17,
            "first_air_date": "2020-01-02",
            "backdrop_path": "/gVVaukIifGJD78llZKgyT5FQbAe.jpg",
            "original_language": "nl",
            "id": 93533,
            "vote_average": 5.1,
            "overview": "Charismatic highwayman Jan de Lichte leads the oppressed and downtrodden in a revolt against the corrupt aristocracy of 18th-century Belgium.",
            "poster_path": "/jQNOzoiaIQWxJAx8OUighnvnhRA.jpg"
        },
        {
            "original_name": "The Flash",
            "genre_ids": [
                18,
                10765
            ],
            "name": "The Flash",
            "popularity": 164.351,
            "origin_country": [
                "US"
            ],
            "vote_count": 3201,
            "first_air_date": "2014-10-07",
            "backdrop_path": "/6ZdQTBy20HzWudZthAV7NkZWfIb.jpg",
            "original_language": "en",
            "id": 60735,
            "vote_average": 6.8,
            "overview": "After a particle accelerator causes a freak storm, CSI Investigator Barry Allen is struck by lightning and falls into a coma. Months later he awakens with the power of super speed, granting him the ability to move through Central City like an unseen guardian angel. Though initially excited by his newfound powers, Barry is shocked to discover he is not the only \"meta-human\" who was created in the wake of the accelerator explosion -- and not everyone is using their new powers for good. Barry partners with S.T.A.R. Labs and dedicates his life to protect the innocent. For now, only a few close friends and associates know that Barry is literally the fastest man alive, but it won't be long before the world learns what Barry Allen has become...The Flash.",
            "poster_path": "/wHa6KOJAoNTFLFtp7wguUJKSnju.jpg"
        },
        {
            "original_name": "Law & Order: Special Victims Unit",
            "genre_ids": [
                80,
                18
            ],
            "name": "Law & Order: Special Victims Unit",
            "popularity": 124.937,
            "origin_country": [
                "US"
            ],
            "vote_count": 801,
            "first_air_date": "1999-09-20",
            "backdrop_path": "/kOvt2BOOwSAQCT8yo3pM3X2GXjh.jpg",
            "original_language": "en",
            "id": 2734,
            "vote_average": 6.5,
            "overview": "In the criminal justice system, sexually-based offenses are considered especially heinous. In New York City, the dedicated detectives who investigate these vicious felonies are members of an elite squad known as the Special Victims Unit. These are their stories.",
            "poster_path": "/6t6r1VGQTTQecN4V0sZeqsmdU9g.jpg"
        },
        {
            "original_name": "Arrow",
            "genre_ids": [
                80,
                18,
                9648,
                10759
            ],
            "name": "Arrow",
            "popularity": 139.943,
            "origin_country": [
                "US"
            ],
            "vote_count": 3082,
            "first_air_date": "2012-10-10",
            "backdrop_path": "/dKxkwAJfGuznW8Hu0mhaDJtna0n.jpg",
            "original_language": "en",
            "id": 1412,
            "vote_average": 5.9,
            "overview": "Spoiled billionaire playboy Oliver Queen is missing and presumed dead when his yacht is lost at sea. He returns five years later a changed man, determined to clean up the city as a hooded vigilante armed with a bow.",
            "poster_path": "/gKG5QGz5Ngf8fgWpBsWtlg5L2SF.jpg"
        },
        {
            "original_name": "Grey's Anatomy",
            "genre_ids": [
                18
            ],
            "name": "Grey's Anatomy",
            "popularity": 88.593,
            "origin_country": [
                "US"
            ],
            "vote_count": 1209,
            "first_air_date": "2005-03-27",
            "backdrop_path": "/edmk8xjGBsYVIf4QtLY9WMaMcXZ.jpg",
            "original_language": "en",
            "id": 1416,
            "vote_average": 6.6,
            "overview": "Follows the personal and professional lives of a group of doctors at Seattle’s Grey Sloan Memorial Hospital.",
            "poster_path": "/jnsvc7gCKocXnrTXF6p03cICTWb.jpg"
        },
        {
            "original_name": "Vikings",
            "genre_ids": [
                18,
                10759
            ],
            "name": "Vikings",
            "popularity": 106.519,
            "origin_country": [
                "CA"
            ],
            "vote_count": 1956,
            "first_air_date": "2013-03-03",
            "backdrop_path": "/aq2yEMgRQBPfRkrO0Repo2qhUAT.jpg",
            "original_language": "en",
            "id": 44217,
            "vote_average": 7.5,
            "overview": "The adventures of Ragnar Lothbrok, the greatest hero of his age. The series tells the sagas of Ragnar's band of Viking brothers and his family, as he rises to become King of the Viking tribes. As well as being a fearless warrior, Ragnar embodies the Norse traditions of devotion to the gods. Legend has it that he was a direct descendant of Odin, the god of war and warriors.",
            "poster_path": "/ff1zhqvwfS5HvRNcA5UFrH0PA2q.jpg"
        },
        {
            "original_name": "Doctor Who",
            "genre_ids": [
                18,
                10759,
                10765
            ],
            "name": "Doctor Who",
            "popularity": 97.086,
            "origin_country": [
                "GB"
            ],
            "vote_count": 1608,
            "first_air_date": "2005-03-26",
            "backdrop_path": "/nfH8SZJVOxcBlFaqqtoqS5hHizG.jpg",
            "original_language": "en",
            "id": 57243,
            "vote_average": 7,
            "overview": "The Doctor is a Time Lord: a 900 year old alien with 2 hearts, part of a gifted civilization who mastered time travel. The Doctor saves planets for a living—more of a hobby actually, and the Doctor's very, very good at it.",
            "poster_path": "/cDDb7WA2i7cENhkEEjXEDrXGyNL.jpg"
        },
        {
            "original_name": "Criminal Minds",
            "genre_ids": [
                80,
                18,
                9648
            ],
            "name": "Criminal Minds",
            "popularity": 115.864,
            "origin_country": [
                "US"
            ],
            "vote_count": 741,
            "first_air_date": "2005-09-22",
            "backdrop_path": "/mzyLxbwy5jOveyfsbC1OWGp78NV.jpg",
            "original_language": "en",
            "id": 4057,
            "vote_average": 7.4,
            "overview": "An elite team of FBI profilers analyze the country's most twisted criminal minds, anticipating their next moves before they strike again. The Behavioral Analysis Unit's most experienced agent is David Rossi, a founding member of the BAU who returns to help the team solve new cases.",
            "poster_path": "/7TCwgX7oQKxcWYEhSPRmaHe6ULN.jpg"
        },
        {
            "original_name": "Homeland",
            "genre_ids": [
                80,
                18,
                10759,
                10768
            ],
            "name": "Homeland",
            "popularity": 110.172,
            "origin_country": [
                "US"
            ],
            "vote_count": 1094,
            "first_air_date": "2011-10-02",
            "backdrop_path": "/hTxfw4af6EizpLM7tHKtoSlbdnu.jpg",
            "original_language": "en",
            "id": 1407,
            "vote_average": 7.5,
            "overview": "CIA officer Carrie Mathison is tops in her field despite being bipolar, which makes her volatile and unpredictable. With the help of her long-time mentor Saul Berenson, Carrie fearlessly risks everything, including her personal well-being and even sanity, at every turn.",
            "poster_path": "/6GAvS2e6VIRsms9FpVt33PsCoEW.jpg"
        },
        {
            "original_name": "Supernatural",
            "id": 1622,
            "name": "Supernatural",
            "popularity": 98.919,
            "vote_count": 2218,
            "vote_average": 7.5,
            "first_air_date": "2005-09-13",
            "poster_path": "/KoYWXbnYuS3b0GyQPkbuexlVK9.jpg",
            "genre_ids": [
                18,
                9648,
                10765
            ],
            "original_language": "en",
            "backdrop_path": "/o9OKe3M06QMLOzTl3l6GStYtnE9.jpg",
            "overview": "When they were boys, Sam and Dean Winchester lost their mother to a mysterious and demonic supernatural force. Subsequently, their father raised them to be soldiers. He taught them about the paranormal evil that lives in the dark corners and on the back roads of America ... and he taught them how to kill it. Now, the Winchester brothers crisscross the country in their '67 Chevy Impala, battling every kind of supernatural threat they encounter along the way. ",
            "origin_country": [
                "US"
            ]
        },
        {
            "original_name": "Locke & Key",
            "genre_ids": [
                18,
                10759,
                10765
            ],
            "name": "Locke & Key",
            "popularity": 85.324,
            "origin_country": [
                "US"
            ],
            "vote_count": 21,
            "first_air_date": "2020-02-07",
            "backdrop_path": "/wAQ50FyrqDGkPWLn57gz7pDgmRK.jpg",
            "original_language": "en",
            "id": 86423,
            "vote_average": 9.2,
            "overview": "Three siblings who move into their ancestral estate after their father's gruesome murder discover their new home's magical keys, which must be used in their stand against an evil creature who wants the keys and their powers.",
            "poster_path": "/lKhF0QX724VS2QqBzSZ4KJif3Ny.jpg"
        },
        {
            "original_name": "The Blacklist",
            "genre_ids": [
                80,
                18,
                9648
            ],
            "name": "The Blacklist",
            "popularity": 101.296,
            "origin_country": [
                "US"
            ],
            "vote_count": 1177,
            "first_air_date": "2013-09-23",
            "backdrop_path": "/fHwiAqIKragaCbNJo9Qs4lrccIN.jpg",
            "original_language": "en",
            "id": 46952,
            "vote_average": 7,
            "overview": "Raymond \"Red\" Reddington, one of the FBI's most wanted fugitives, surrenders in person at FBI Headquarters in Washington, D.C. He claims that he and the FBI have the same interests: bringing down dangerous criminals and terrorists. In the last two decades, he's made a list of criminals and terrorists that matter the most but the FBI cannot find because it does not know they exist. Reddington calls this \"The Blacklist\". Reddington will co-operate, but insists that he will speak only to Elizabeth Keen, a rookie FBI profiler.",
            "poster_path": "/bgbQCW4fE9b6wSOSC6Fb4FfVzsW.jpg"
        },
        {
            "original_name": "Riverdale",
            "genre_ids": [
                18,
                9648
            ],
            "name": "Riverdale",
            "popularity": 81.619,
            "origin_country": [
                "US"
            ],
            "vote_count": 834,
            "first_air_date": "2017-01-26",
            "backdrop_path": "/yVc41GMQw4yujjk6fuuAMMFTt8H.jpg",
            "original_language": "en",
            "id": 69050,
            "vote_average": 7.4,
            "overview": "Set in the present, the series offers a bold, subversive take on Archie, Betty, Veronica and their friends, exploring the surreality of small-town life, the darkness and weirdness bubbling beneath Riverdale’s wholesome facade.",
            "poster_path": "/4X7o1ssOEvp4BFLim1AZmPNcYbU.jpg"
        },
        {
            "original_name": "The Walking Dead",
            "genre_ids": [
                18,
                10759,
                10765
            ],
            "name": "The Walking Dead",
            "popularity": 87.805,
            "origin_country": [
                "US"
            ],
            "vote_count": 4497,
            "first_air_date": "2010-10-31",
            "backdrop_path": "/wXXaPMgrv96NkH8KD1TMdS2d7iq.jpg",
            "original_language": "en",
            "id": 1402,
            "vote_average": 7.3,
            "overview": "Sheriff's deputy Rick Grimes awakens from a coma to find a post-apocalyptic world dominated by flesh-eating zombies. He sets out to find his family and encounters many other survivors along the way.",
            "poster_path": "/rNaUtio3efH0R4W9WizMjCXvh03.jpg"
        },
        {
            "original_name": "Chicago Fire",
            "genre_ids": [
                18
            ],
            "name": "Chicago Fire",
            "popularity": 66.389,
            "origin_country": [
                "US"
            ],
            "vote_count": 351,
            "first_air_date": "2012-10-10",
            "backdrop_path": "/gdIFeiJGsywKt6scyILMZI1tMl4.jpg",
            "original_language": "en",
            "id": 44006,
            "vote_average": 7.6,
            "overview": "An edge-of-your-seat view into the lives of everyday heroes committed to one of America's noblest professions. For the firefighters, rescue squad and paramedics of Chicago Firehouse 51, no occupation is more stressful or dangerous, yet so rewarding and exhilarating. These courageous men and women are among the elite who forge headfirst into danger when everyone else is running the other way and whose actions make the difference between life and death.",
            "poster_path": "/g9aoiYLbE3IrDiMms5fU4lv6BR4.jpg"
        },
        {
            "original_name": "The Stranger",
            "genre_ids": [
                18,
                9648
            ],
            "name": "The Stranger",
            "popularity": 72.072,
            "origin_country": [],
            "vote_count": 19,
            "first_air_date": "2020-01-30",
            "backdrop_path": "/szfCRkxnMUBWYhoMNzHFPRcNglQ.jpg",
            "original_language": "en",
            "id": 96608,
            "vote_average": 8,
            "overview": "A web of secrets sends family man Adam Price on a desperate quest to uncover the truth about the people closest to him.",
            "poster_path": "/cWGGUIAdlvkvEKhtsdioO8XdDyv.jpg"
        },
        {
            "original_name": "Legacies",
            "genre_ids": [
                18,
                10765
            ],
            "name": "Legacies",
            "popularity": 67.012,
            "origin_country": [
                "US"
            ],
            "vote_count": 347,
            "first_air_date": "2018-10-25",
            "backdrop_path": "/tIYb76SgqjUJ6XLFwBrk4gvGNtn.jpg",
            "original_language": "en",
            "id": 79460,
            "vote_average": 8,
            "overview": "In a place where young witches, vampires, and werewolves are nurtured to be their best selves in spite of their worst impulses, Klaus Mikaelson’s daughter, 17-year-old Hope Mikaelson, Alaric Saltzman’s twins, Lizzie and Josie Saltzman, among others, come of age into heroes and villains at The Salvatore School for the Young and Gifted.",
            "poster_path": "/1Uhoi348GEg4DObGrVLNUqtKtdu.jpg"
        },
        {
            "original_name": "Power",
            "genre_ids": [
                80,
                18
            ],
            "name": "Power",
            "popularity": 71.049,
            "origin_country": [
                "US"
            ],
            "vote_count": 749,
            "first_air_date": "2014-06-07",
            "backdrop_path": "/D2DL5b9HBAy9jST2ZaDJLNHEsY.jpg",
            "original_language": "en",
            "id": 54650,
            "vote_average": 7.6,
            "overview": "A successful New York entrepreneur lives a double life as the head of a drug empire that serves only the rich and influential, all while wanting to escape the underworld and keep his family safe.",
            "poster_path": "/ctftzvyj8b0odco7EoS9VfJhf7K.jpg"
        },
        {
            "original_name": "Sex Education",
            "genre_ids": [
                35,
                18
            ],
            "name": "Sex Education",
            "popularity": 70.663,
            "origin_country": [
                "GB"
            ],
            "vote_count": 355,
            "first_air_date": "2019-01-11",
            "backdrop_path": "/61m8HGEWwE4q8oSz3AY5vl5F3BS.jpg",
            "original_language": "en",
            "id": 81356,
            "vote_average": 8.1,
            "overview": "Inexperienced Otis channels his sex therapist mom when he teams up with rebellious Maeve to set up an underground sex therapy clinic at school.",
            "poster_path": "/4Bph0hhnDH6dpc0SZIV522bLm4P.jpg"
        }
    ]
}
